%YAML 1.1
%TAG !u! tag:unity3d.com,2011:
--- !u!114 &11400000
MonoBehaviour:
  m_ObjectHideFlags: 0
  m_CorrespondingSourceObject: {fileID: 0}
  m_PrefabInstance: {fileID: 0}
  m_PrefabAsset: {fileID: 0}
  m_GameObject: {fileID: 0}
  m_Enabled: 1
  m_EditorHideFlags: 0
  m_Script: {fileID: 11500000, guid: cf0de1c2c63667d4990a38cd554a1b98, type: 3}
  m_Name: Two Sticks
  m_EditorClassIdentifier: 
  name: Two Sticks
  description: Some two sticks together...
  phase: 1
  craftable: 1
