%YAML 1.1
%TAG !u! tag:unity3d.com,2011:
--- !u!1045 &1
EditorBuildSettings:
  m_ObjectHideFlags: 0
  serializedVersion: 2
  m_Scenes:
  - enabled: 0
    path: Assets/Scenes/StartMenu.unity
    guid: b6007174401e264648d99b19dceeff7c
  - enabled: 0
    path: Assets/Scenes/Hung Pham/StartMenu 1.unity
    guid: 665caeb76673f104abb0e3191c6db0f3
  - enabled: 0
    path: Assets/Scenes/Hung Pham/Level_0_HP.unity
    guid: 905717bc857c5bc4cac3f4c4ecf8d785
  - enabled: 0
    path: Assets/Scenes/Hung Pham/Level_1_Cutscene_HP.unity
    guid: e6f83d228dddbca49acc6bfd87d5c4ce
  - enabled: 0
    path: Assets/Scenes/Hung Pham/Level_1_HP.unity
    guid: 956a4cf35b9e5c24fa937915dea373ee
  - enabled: 0
    path: Assets/Scenes/Hung Pham/Level_2_HP.unity
    guid: f18a7285e23bc9b4bb9eae5924c6c58f
  - enabled: 0
    path: Assets/Scenes/Beta_version/Level_0_Beta.unity
    guid: 188e8ec75b3ac514fb6e3e941a6fa6cf
  - enabled: 0
    path: Assets/Scenes/Beta_version/Level_1_Beta.unity
    guid: 5853b37c354898b46a790f0b5b2a8ce2
  - enabled: 1
    path: Assets/Scenes/An Pham 2.0/StartMenu 1.unity
    guid: bd338633322d9b64d924bca678bdb4bc
  - enabled: 1
    path: Assets/Scenes/An Pham 2.0/Level_0_AP.unity
    guid: 293054aaa42981a43a1bf9c51c28461b
  - enabled: 1
    path: Assets/Scenes/An Pham 2.0/Level_1_Cutscene_AP.unity
    guid: 70cfca4556c14c34391f8019d5a77c34
  - enabled: 1
    path: Assets/Scenes/An Pham 2.0/Level_1_AP.unity
    guid: 2b642147c9fb938459953db24e51e935
  - enabled: 1
    path: Assets/Scenes/An Pham 2.0/Level_3_HP.unity
    guid: e00fbb0fd63176748898f448cbf7f702
  - enabled: 1
    path: Assets/Scenes/An Pham 2.0/TheEnd.unity
    guid: 9f958b2ce1516144785a2d28a3e0c055
  m_configObjects: {}
