%YAML 1.1
%TAG !u! tag:unity3d.com,2011:
--- !u!78 &1
TagManager:
  serializedVersion: 2
  tags:
  - Background
  - Item
  - Light
  - Pushable
  - Ground
  - Foreground
  - Inventory
  - InventoryBar
  - Slot
  - PlayerLight
  - PauseMenu
  - Water
  - Text
  - Pet
  - Hints
  - LightReveal
  - FogBackground
  - Fog
  layers:
  - Default
  - TransparentFX
  - Ignore Raycast
  - 
  - Water
  - UI
  - 
  - 
  - Player
  - BackgourndItems
  - ForegroundItems
  - Pushable
  - Light
  - Ground
  - Foreground
  - Background
  - Camera
  - Water
  - RightShoreCheck
  - Pet
  - 
  - 
  - 
  - 
  - 
  - 
  - 
  - 
  - 
  - 
  - 
  - 
  m_SortingLayers:
  - name: Default
    uniqueID: 0
    locked: 1
  - name: BackgroundLight
    uniqueID: 852371093
    locked: 1
  - name: FogFarBackground
    uniqueID: 4025730793
    locked: 0
  - name: Clouds
    uniqueID: 1435081647
    locked: 0
  - name: FarBackground
    uniqueID: 1661860155
    locked: 1
  - name: Background
    uniqueID: 1955822445
    locked: 1
  - name: FogBackground
    uniqueID: 401808053
    locked: 0
  - name: BackgroundItems
    uniqueID: 2532023641
    locked: 1
  - name: Pushable
    uniqueID: 1148490059
    locked: 1
  - name: Player
    uniqueID: 3383937245
    locked: 1
  - name: ForegroundItems
    uniqueID: 1775832943
    locked: 1
  - name: Water
    uniqueID: 1414733795
    locked: 0
  - name: Foreground
    uniqueID: 4211630523
    locked: 1
  - name: FogForeground
    uniqueID: 1172672995
    locked: 0
